{
  "actions": [
    {
      "type": "key",
      "id": "keyboard",
      "actions": [
        {
          "type": "keyDown",
          "value": "A"
        },
        {
          "type": "keyDown",
          "value": "p"
        },
        {
          "type": "keyDown",
          "value": "p"
        },
        {
          "type": "keyDown",
          "value": "l"
        },
        {
          "type": "keyDown",
          "value": "e"
        },
        {
          "type": "keyDown",
          "value": " "
        },
        {
          "type": "keyDown",
          "value": "C"
        },
        {
          "type": "keyDown",
          "value": "i"
        },
        {
          "type": "keyDown",
          "value": "n"
        },
        {
          "type": "keyDown",
          "value": "e"
        },
        {
          "type": "keyDown",
          "value": "m"
        },
        {
          "type": "keyDown",
          "value": "a"
        },
        {
          "type": "keyUp",
          "value": "A"
        },
        {
          "type": "keyUp",
          "value": "p"
        },
        {
          "type": "keyUp",
          "value": "p"
        },
        {
          "type": "keyUp",
          "value": "l"
        },
        {
          "type": "keyUp",
          "value": "e"
        },
        {
          "type": "keyUp",
          "value": " "
        },
        {
          "type": "keyUp",
          "value": "C"
        },
        {
          "type": "keyUp",
          "value": "i"
        },
        {
          "type": "keyUp",
          "value": "n"
        },
        {
          "type": "keyUp",
          "value": "e"
        },
        {
          "type": "keyUp",
          "value": "m"
        },
        {
          "type": "keyUp",
          "value": "a"
        }
      ]
    }
  ]
}