[
  {
    "element-6066-11e4-a52e-4f735466cecf": "5867520e-cabe-472b-8934-a70bf9729ba1"
  },
  {
    "element-6066-11e4-a52e-4f735466cecf": "50dfe681-26d3-4864-8c75-7622121b87c7"
  },
  {
    "element-6066-11e4-a52e-4f735466cecf": "dd47f559-67e7-44d4-889e-ade58c473311"
  },
  {
    "element-6066-11e4-a52e-4f735466cecf": "75158ad0-9840-4e7f-b4fd-4fac1041c5a9"
  },
  {
    "element-6066-11e4-a52e-4f735466cecf": "dd20f9a6-4549-4b3d-90df-26233599f727"
  }
]