{
  "script": "return (function () {\n      const $select = this.dropDownColor;\n      const $option = this.dropDownColor.$('//option[contains(text(), ´${color}´)]');\n      $option.selected = true;\n      document.querySelector('.changeSelected').addEventListener('click', changeSelected);\n    }).apply(null, arguments)",
  "args": []
}