{
  "script": "return (function (selector) {\n      const optionToSelect = selector.find(item => item.text === color);\n      optionToSelect.selected = true;\n      document.querySelector('.changeSelected').addEventListener('click', changeSelected);\n    }).apply(null, arguments)",
  "args": [
    {}
  ]
}