{
  "error": "no such element",
  "message": "no such element: Unable to locate element: {\"method\":\"link text\",\"selector\":\"${numeroIndice}\"}\n  (Session info: chrome=102.0.5005.63)",
  "stacktrace": "Backtrace:\n\tOrdinal0 [0x0101D953+2414931]\n\tOrdinal0 [0x00FAF5E1+1963489]\n\tOrdinal0 [0x00E9C6B8+837304]\n\tOrdinal0 [0x00EC9500+1021184]\n\tOrdinal0 [0x00EC979B+1021851]\n\tOrdinal0 [0x00EBFCF1+982257]\n\tOrdinal0 [0x00EE44E4+1131748]\n\tOrdinal0 [0x00EBFC74+982132]\n\tOrdinal0 [0x00EE46B4+1132212]\n\tOrdinal0 [0x00EF4812+1198098]\n\tOrdinal0 [0x00EE42B6+1131190]\n\tOrdinal0 [0x00EBE860+976992]\n\tOrdinal0 [0x00EBF756+980822]\n\tGetHandleVerifier [0x0128CC62+2510274]\n\tGetHandleVerifier [0x0127F760+2455744]\n\tGetHandleVerifier [0x010AEABA+551962]\n\tGetHandleVerifier [0x010AD916+547446]\n\tOrdinal0 [0x00FB5F3B+1990459]\n\tOrdinal0 [0x00FBA898+2009240]\n\tOrdinal0 [0x00FBA985+2009477]\n\tOrdinal0 [0x00FC3AD1+2046673]\n\tBaseThreadInitThunk [0x75FD6739+25]\n\tRtlGetFullPathName_UEx [0x77D78FEF+1215]\n\tRtlGetFullPathName_UEx [0x77D78FBD+1165]\n"
}