{
  "script": "return (function () {\n      const $select = this.dropDownColor;\n      const $options = Array.from($select.options);\n      const optionToSelect = $options.find(item => item.text === color);\n      optionToSelect.selected = true;\n      document.querySelector('.changeSelected').addEventListener('click', changeSelected);\n    }).apply(null, arguments)",
  "args": []
}