{
  "script": "return (function isElementClickable(elem) {\n    if (!elem.getBoundingClientRect || !elem.scrollIntoView || !elem.contains || !elem.getClientRects || !document.elementFromPoint) {\n        return false;\n    }\n    // Edge before switching to Chromium\n    const isOldEdge = !!window.StyleMedia;\n    // returns true for Chrome and Firefox and false for Safari, Edge and IE\n    const scrollIntoViewFullSupport = !(window.safari || isOldEdge);\n    // get overlapping element\n    function getOverlappingElement(elem, context) {\n        context = context || document;\n        const elemDimension = elem.getBoundingClientRect();\n        const x = elemDimension.left + (elem.clientWidth / 2);\n        const y = elemDimension.top + (elem.clientHeight / 2);\n        return context.elementFromPoint(x, y);\n    }\n    // get overlapping element rects (currently only the first)\n    // applicable if element's text is multiline.\n    function getOverlappingRects(elem, context) {\n        context = context || document;\n        const elems = [];\n        const rects = elem.getClientRects();\n        // webdriver clicks on center of the first element's rect (line of text), it might change in future\n        const rect = rects[0];\n        const x = rect.left + (rect.width / 2);\n        const y = rect.top + (rect.height / 2);\n        elems.push(context.elementFromPoint(x, y));\n        return elems;\n    }\n    // get overlapping elements\n    function getOverlappingElements(elem, context) {\n        return [getOverlappingElement(elem, context)].concat(getOverlappingRects(elem, context));\n    }\n    // is a node a descendant of a given node\n    function nodeContains(elem, otherNode) {\n        // Edge doesn't support neither Shadow Dom nor contains if ShadowRoot polyfill is used\n        if (isOldEdge) {\n            let tmpElement = otherNode;\n            while (tmpElement) {\n                if (tmpElement === elem) {\n                    return true;\n                }\n                tmpElement = tmpElement.parentNode;\n                // DocumentFragment / ShadowRoot polyfill like ShadyRoot\n                if (tmpElement && tmpElement.nodeType === 11 && tmpElement.host) {\n                    tmpElement = tmpElement.host;\n                }\n            }\n            return false;\n        }\n        return elem.contains(otherNode);\n    }\n    // is one of overlapping elements the `elem` or one of its child\n    function isOverlappingElementMatch(elementsFromPoint, elem) {\n        if (elementsFromPoint.some(function (elementFromPoint) {\n            return elementFromPoint === elem || nodeContains(elem, elementFromPoint);\n        })) {\n            return true;\n        }\n        // shadow root\n        // filter unique elements with shadowRoot\n        // @ts-ignore\n        let elemsWithShadowRoot = [].concat(elementsFromPoint);\n        elemsWithShadowRoot = elemsWithShadowRoot.filter(function (x) {\n            return x && x.shadowRoot && x.shadowRoot.elementFromPoint;\n        });\n        // getOverlappingElements of every element with shadowRoot\n        let shadowElementsFromPoint = [];\n        for (let i = 0; i < elemsWithShadowRoot.length; ++i) {\n            let shadowElement = elemsWithShadowRoot[i];\n            shadowElementsFromPoint = shadowElementsFromPoint.concat(getOverlappingElements(elem, shadowElement.shadowRoot));\n        }\n        // remove duplicates and parents\n        // @ts-ignore\n        shadowElementsFromPoint = [].concat(shadowElementsFromPoint);\n        shadowElementsFromPoint = shadowElementsFromPoint.filter(function (x) {\n            return !elementsFromPoint.includes(x);\n        });\n        if (shadowElementsFromPoint.length === 0) {\n            return false;\n        }\n        return isOverlappingElementMatch(shadowElementsFromPoint, elem);\n    }\n    // copied from `isElementInViewport.js`\n    function isElementInViewport(elem) {\n        if (!elem.getBoundingClientRect) {\n            return false;\n        }\n        const rect = elem.getBoundingClientRect();\n        const windowHeight = (window.innerHeight || document.documentElement.clientHeight);\n        const windowWidth = (window.innerWidth || document.documentElement.clientWidth);\n        const vertInView = (rect.top <= windowHeight) && ((rect.top + rect.height) > 0);\n        const horInView = (rect.left <= windowWidth) && ((rect.left + rect.width) > 0);\n        return (vertInView && horInView);\n    }\n    function isClickable(elem) {\n        return (isElementInViewport(elem) && elem.disabled !== true &&\n            isOverlappingElementMatch(getOverlappingElements(elem), elem));\n    }\n    // scroll to the element if it's not clickable\n    if (!isClickable(elem)) {\n        // works well in dialogs, but the element may be still overlapped by some sticky header/footer\n        elem.scrollIntoView(scrollIntoViewFullSupport ? { block: 'nearest', inline: 'nearest' } : false);\n        // if element is still not clickable take another scroll attempt\n        if (!isClickable(elem)) {\n            // scroll to element, try put it in the screen center.\n            // Should definitely work even if element was covered with sticky header/footer\n            elem.scrollIntoView(scrollIntoViewFullSupport ? { block: 'center', inline: 'center' } : true);\n            return isClickable(elem);\n        }\n    }\n    return true;\n}).apply(null, arguments)",
  "args": [
    {
      "element-6066-11e4-a52e-4f735466cecf": "37772fa6-00e3-43a9-a8a9-eafd1d839e2d",
      "ELEMENT": "37772fa6-00e3-43a9-a8a9-eafd1d839e2d"
    }
  ]
}