[
  {
    "element-6066-11e4-a52e-4f735466cecf": "89da27c2-06f2-429c-9050-bd506f5ecb7a"
  },
  {
    "element-6066-11e4-a52e-4f735466cecf": "1b3c6a10-f553-4658-ab95-bbdca232d98c"
  },
  {
    "element-6066-11e4-a52e-4f735466cecf": "2035a171-8a67-4126-b778-0d00934eb07e"
  },
  {
    "element-6066-11e4-a52e-4f735466cecf": "35d3f90e-050b-4829-b113-9c63e042cb56"
  },
  {
    "element-6066-11e4-a52e-4f735466cecf": "c0ddb5b7-a8be-4ad9-b584-f58f40ff6a8c"
  }
]