{
  "using": "xpath",
  "value": "./option[. = \"Blue (+$3.60)\"]|./option[normalize-space(text()) = \"Blue (+$3.60)\"]|./optgroup/option[. = \"Blue (+$3.60)\"]|./optgroup/option[normalize-space(text()) = \"Blue (+$3.60)\"]"
}